{
  "conversations": [
    [
      "Hola",
      "Hola soy Boti Bot, en que te puedo ayudar?"
    ],
    [
      "Sabias que?",
      "Una pila tipo botón que se usa en relojes contamina hasta 600.000 litros de agua"
    ],
    [
      "Hola, que tal?",
      "Hola, bien y tu?"
    ],
    [
      "Como estás?",
      "Bien y tu?"
    ],
    [
      "Que es green it?",
      "se refiere al uso eficiente de los recursos computacionales minimizando el impacto ambiental, maximizando su viabilidad económica y asegurando deberes sociales. "
    ],
    [
      "consejo aire acondicionado",
      "Pon el aire acondicionado a 24 C en verano y a 20 C en invierno. recuerda que la temperatura programada se mantiene por más tiempo con las puertas y ventanas cerradas, al menos cada seis meses, limpia los filtros del equipo."
    ],
    [
      "Dame un consejo de buenas practicas",
      "Usá lámparas LED y mantenelas limpias (cuando están sucias o en mal estado, pierden hasta un 50% de luminosidad). Utilizá sensores de movimiento y/o temporizadores para espacios comunes."
    ],
    [
      "consejo para ropa",
      "Lavá la mayor cantidad de ropa con el programa económico. Si podés, usá siempre agua fría ya que la caliente consume un 80% más de energía."
    ],
    [
      "consejo nevera",
      "Abre la nevera la menor cantidad de tiempo posible y, cuando no la uses, asegurate de dejarla bien cerrada. Ubicala por lo menos a 15 centímetros de fuentes de calor, paredes o muebles."
    ],
    [
      "consejo para la ropa",
      "Lavá la mayor cantidad de ropa con el programa económico.Si puedes usa, usá siempre agua fría ya que la caliente consume un 80% más de energía."
    ],
    [
      "consejo computadora",
      "Apagá la computadora cuando termines de usarla. El consumo en modo Espera equivale hasta un 70% del consumo en modo Encendido."
    ],
    [
      "consejo televisores",
      "En televisores y reproductores de DVD y audio, evitá el temporizador, el encendido instantáneo y la posición de espera o stand by."
    ],
    [
      "Dame un consejo",
      "Desconecta todo aparato electrónico que no estes usando"
    ],
    [
      "Consejo de cocina",
      "Cocina con las.ollas tapadas. Así herviran mas rapido"
    ],
    [
      "Consejo de baño",
      "En la.ducha, que tu baño sea corto",
      "Consejo de transporte",
      "Prefiera la.bicicleta para desplazamientos cortos.en la ciudad"
    ],
    [
      "Consejo de transporte",
      "En el desplazamiento al trabajo o.estudio, prefiera usar un solo carro entre varias personas"
    ],
    [
      "Consejo green it",
      "Elimine los.correos que.ya no necesitas, manten la.bandeja de entrada muy limpia"
    ],
    [
      "Consejo para medio ambiente",
      "Reutiliza los envases plasticos para otros usos diferentes a alimentos"
    ],
    [
      "Consejo para medio ambiente",
      "Evita los empaques y envases deSechables de un solo uso"
    ],
    [
      "consejo ambiental",
      "Prefiera utilizar bolsas de papel"
    ],
    [
      "Consejo ambiental ropa",
      "Utiliza ropa de algodon en vez de poliester"
    ],
    [
      "Consejo de transporte",
      "En el desplazamiento al trabajo o.estudio, prefiera usar un solo carro entre varias personas"
    ],
    [
      "tip",
      "Si bajas la temperatura de tu termostato ahorras 10% de la energía para calentar tu casa."
    ],
    [
      "tip",
      "Cierra las cortinas, persianas y ventanas siempre que sea necesario en verano para que las habitaciones no se calienten tanto por el sol y no abuses con el uso de aire acondicionado."
    ],
    [
      "tip",
      "En  invierno abre las ventanas y deja entrar el sol durante el día para que las habitaciones conserven el calorcito por la noche y no solo utilizar la estufa cuando sea muy necesario."
    ],
    [
      "tip",
      "Apaga los electrodomésticos cuando no los necesitas. Recuerda que el stand by (piloto rojo encendido) y los cargadores que dejas en el enchufe también consumen energía."
    ],
    [
      "tip",
      "¡Sé creativo y recicla tus muebles! Puedes hacer una estantería de una cama vieja o pintar una silla aburrida con colores brillantes. Las muebles que ya no necesitas las puedes donar o regalar en vez de tirarlas."
    ],
    [
      "tip",
      "¡Usa productos reciclados! Para fabricar papel reciclado se necesita un 89% menos que para la producción del papel virgen."
    ],
    [
      "tip",
      "Cuando te bañas, cierra la ducha mientras te enjabonas y te afeitas."
    ],
    [
      "tip",
      "Tampoco dejas correr el agua cuando te lavas los dientes."
    ],
    [
      "tip",
      "Ten cuidado, cierra bien los grifos al terminar de utilizarlo: una gota por segundo supone 30litros al día."
    ],
    [
      "tip",
      "Compra productos locales —es bueno para la economía local y ahorra energía porque los productos no han viajado por todo el planeta para estar a tu alcance."
    ],
    [
      "tip",
      "Haz composta con tus desechos orgánicos y úsalos como tierra rica en nutrientes para el pasto o plantas. La compostación (proceso de transformación natural hasta obtener un producto) se lleva a cabo en un par semanas o meses, dependiendo de la composición de la masa. La composta agrega humedad y nutrientes a la tierra y mejoran la estructura del suelo, de manera que tendrás un jardín o macetas sanas y productivas."
    ],
    [
      "tip",
      "Lleva tu almuerzo en contenedores reusables."
    ],
    [
      "tip",
      "Reduce el número de copias que sacas y cuando elabores algún documento disminuye el tamaño de la letra y los márgenes. Usa la función dúplex de tu impresora; así ahorras hasta la mitad del papel."
    ],
    [
      "tip",
      "No precalientes el horno, es un desperdicio de energía. Además, apágalo 15 minutos antes, el calor que queda en el horno terminará la cocción."
    ],
    [
      "tip",
      "El agua hervirá más rápido si tapas la olla."
    ],
    [
      "tip",
      "Come alimentos que estén en la parte inferior de la cadena alimenticia —la producción de fruta y vegetales requiere menos energía que la producción de carne."
    ],
    [
      "tip",
      "Evita los productos de limpieza que llevan mucha química. El vinagre es un desinfectante suave y un detergente natural que corta la grasa, remueva la cal y limpia el vidrio."
    ],
    [
      "tip",
      "Sólo lava las prendas que necesitan ser lavadas. Hay ropa que puedes usar más de una vez antes de lavarla."
    ],
    [
      "tip",
      "En la caja del agua del excusado coloca una botella (bien cerrada) llena con arena o grava, para reducir la cantidad de agua que se usa al jalarle al WC."
    ],
    [
      "tip",
      "Planta flores, árboles y vegetales nativos o endémicos para minimizar el uso de agua y para que los insectos autóctonos encuentren los recursos que necesitan."
    ],
    [
      "tip",
      "Al elegir un electrodoméstico fíjate en el consumo energético; puede haber hasta un 80% de diferencia!  También  existen importantes diferencias en el consume de agua entre diferentes modelos de lavadoras, lavaplatos, etc. ¡Eligiendo un modelo que consume poca energía y poca agua no solo ayudas al medio ambiente sino también ahorras dinero!"
    ],
    [
      "tip",
      "Evitando tirar por los desagües nada que no sea agua. Los aceites y otros residuos pueden contaminar nuestros ríos. Además dificultan el trabajo de las depuradoras así que consumen más energía."
    ],
    [
      "tip",
      "Reduce el derroche de alimentos. Hasta un 40% de nuestra comida está tirado a la basura. En cocinar solamente lo que necesitas ahorras energía, dinero y basura."
    ],
    [
      "tip",
      "Camina, usa tu bici o el transporte público para ir al trabajo u organízate para que varios usen sólo un auto."
    ],
    [
      "tip",
      "Cuánto más pesa tu coche, más gasolina consuma. Vacía tu coche después de haber hecho las compras y no lleves objetos que no necesitas."
    ],
    [
      "tip",
      "Si se lava el coche con un cubo de agua se estima que se consumen 60 litros de agua, frente a los 500 que supone lavarlo con manguera."
    ],
    [
      "tip",
      "En vez de usar ambientadores químicos decora tu casa con plantas aromáticas o flores secas y mantén una buena circulación de aire."
    ],
    [
      "tip",
      "Antes de comprarte un nuevo móvil o una cámara, pregúntate si  realmente es necesario. Ya que llevan muchos componentes técnicos se consume mucha energía en su producción."
    ],
    [
      "tip",
      "En vez de comprar platos preparados cocina en base de ingredientes frescos y naturales. La comida que ya viene preparado consuma mucha energía en su producción, transporte y embalaje."
    ],
    [
      "Sabias que?",
      "La mayoría de las pilas van a parar a los basureros municipales y luego sus  emanaciones llegan a las  napas de agua subterránea, poniendo en peligro nuestras aguas, flora y fauna."
    ],
    [
      "Sabias que?",
      "La manera recomendada de descartar pilas es no tirarlas a la basura."
    ],
    [
      "Sabias que?",
      "Una alternativa económica es almacenarlas en envases usados de gaseosas (plástico) con un poco de aserrín. Te invitamos a preparar y llenar las botellas."
    ]
  ]
}
